<?xml version="1.0" encoding="UTF-8"?>
<svg width="32px" height="32px" viewBox="0 0 32 32" version="1.1" xmlns="http://www.w3.org/2000/svg" xmlns:xlink="http://www.w3.org/1999/xlink">
    <!-- Generator: sketchtool 52.2 (67145) - http://www.bohemiancoding.com/sketch -->
    <title>75DA53A7-FE3E-459B-9FF7-64316F86B13C</title>
    <desc>Created with sketchtool.</desc>
    <g id="Landing" stroke="none" stroke-width="1" fill="none" fill-rule="evenodd">
        <g id="Landing_03" transform="translate(-1006.000000, -4028.000000)" fill-rule="nonzero">
            <rect id="Rectangle-Copy-3" fill="#F5F7FC" x="0" y="3649" width="1920" height="1252"></rect>
            <g id="Icon/-Trust-Copy-2" transform="translate(1006.000000, 4028.000000)" stroke="#064CBE" stroke-width="2">
                <g id="Group" transform="translate(0.000000, 1.600000)">
                    <path d="M7.19534874,12.664856 L16.9351436,22.4046509 L26.5999996,22.4046509 C27.7045691,22.4046509 28.5999996,21.5092204 28.5999996,20.4046509 L28.5999996,3 C28.5999996,1.8954305 27.7045691,1 26.5999996,1 L9.19534874,1 C8.09077924,1 7.19534874,1.8954305 7.19534874,3 L7.19534874,12.664856 Z" id="Path"></path>
                    <path d="M15.1807048,12.0790695 L16.8976742,12.0790695 L16.8976742,9.54873222 C15.6580176,8.92440977 14.8325581,7.64237359 14.8325581,6.19534893 C14.8325581,4.74832427 15.6580176,3.46628809 16.8976742,2.84196565 L16.8976742,1 L9.19534874,1 C8.09077924,1 7.19534874,1.8954305 7.19534874,3 L7.19534874,12.0790695 L8.91231847,12.0790695 C9.43687195,10.8560456 10.6518396,10.0139534 12.0465117,10.0139534 C13.4411837,10.0139534 14.6561514,10.8560456 15.1807048,12.0790695 Z" id="Combined-Shape"></path>
                    <path d="M27.2232559,22.4046509 L27.2232559,20.5626856 C25.9835994,19.9383632 25.1581398,18.656327 25.1581398,17.2093023 C25.1581398,15.7622777 25.9835994,14.4802415 27.2232559,13.855919 L27.2232559,11.3255814 L19.5209305,11.3255814 C18.416361,11.3255814 17.5209305,12.2210119 17.5209305,13.3255814 L17.5209305,22.4046509 L20.4620872,22.4046509 L20.762105,22.8040734 C21.2214219,23.4155757 21.9375129,23.7813957 22.7162794,23.7813957 C23.4950459,23.7813957 24.2111369,23.4155757 24.6704538,22.8040734 L24.9704716,22.4046509 L27.2232559,22.4046509 Z" id="Combined-Shape-Copy-2" transform="translate(22.372093, 17.553488) scale(-1, 1) rotate(-90.000000) translate(-22.372093, -17.553488) "></path>
                    <path d="M12.2845902,19.1787097 L12.2845902,17.4240216 L10.1947605,17.4240216 L9.91624624,16.8791919 C9.44296933,15.9533672 8.49151683,15.3589051 7.43342733,15.3589051 C6.37533784,15.3589051 5.42388534,15.9533672 4.95060843,16.8791919 L4.67209421,17.4240216 L2.5822648,17.4240216 L2.5822648,25.1263471 C2.5822648,26.2309166 3.47769531,27.1263471 4.5822648,27.1263471 L12.2845902,27.1263471 L12.2845902,24.9771188 C11.0813914,24.5633027 10.2168043,23.421576 10.2168043,22.0779142 C10.2168043,20.7342524 11.0813914,19.5925258 12.2845902,19.1787097 Z" id="Combined-Shape" transform="translate(7.433427, 21.242626) rotate(-15.000000) translate(-7.433427, -21.242626) "></path>
                </g>
            </g>
        </g>
    </g>
</svg>