<?xml version="1.0" encoding="UTF-8"?>
<svg width="161px" height="30px" viewBox="0 0 161 30" version="1.1" xmlns="http://www.w3.org/2000/svg" xmlns:xlink="http://www.w3.org/1999/xlink">
    <!-- Generator: sketchtool 52.2 (67145) - http://www.bohemiancoding.com/sketch -->
    <title>B3CE0E1E-81FF-44FB-AEDC-8DE42D106454</title>
    <desc>Created with sketchtool.</desc>
    <defs>
        <radialGradient cx="23.3421751%" cy="123.701526%" fx="23.3421751%" fy="123.701526%" r="318.143236%" gradientTransform="translate(0.233422,1.237015),scale(1.000000,0.576078),translate(-0.233422,-1.237015)" id="radialGradient-1">
            <stop stop-color="#32D87D" offset="0%"></stop>
            <stop stop-color="#95FF49" offset="99%"></stop>
        </radialGradient>
        <radialGradient cx="-23.2888264%" cy="-9.94490109%" fx="-23.2888264%" fy="-9.94490109%" r="290.372453%" gradientTransform="translate(-0.232888,-0.099449),scale(1.000000,0.655448),translate(0.232888,0.099449)" id="radialGradient-2">
            <stop stop-color="#38EF7D" offset="0%"></stop>
            <stop stop-color="#35E87E" offset="9%"></stop>
            <stop stop-color="#11998E" offset="100%"></stop>
        </radialGradient>
        <linearGradient x1="116.686306%" y1="-17.1186105%" x2="14.998106%" y2="85.2255956%" id="linearGradient-3">
            <stop stop-color="#085BBF" offset="0%"></stop>
            <stop stop-color="#08BCED" offset="100%"></stop>
        </linearGradient>
        <linearGradient x1="82.4717147%" y1="92.4936347%" x2="13.5552352%" y2="2.30077039%" id="linearGradient-4">
            <stop stop-color="#075DC8" offset="0%"></stop>
            <stop stop-color="#04B5EB" offset="100%"></stop>
        </linearGradient>
    </defs>
    <g id="Landing" stroke="none" stroke-width="1" fill="none" fill-rule="evenodd">
        <g id="Landing_03" transform="translate(-246.000000, -32.000000)">
            <g id="Logo" transform="translate(245.000000, 32.000000)">
                <g id="Group-8-Copy-2" stroke-width="1" transform="translate(1.137931, 0.000000)">
                    <g id="Icon_SociumLend">
                        <polygon id="Shape" fill="url(#radialGradient-1)" fill-rule="nonzero" points="28.4482759 10 18.2068966 17.7777778 18.2068966 7.77777778 28.4482759 0"></polygon>
                        <polygon id="Shape" fill="url(#radialGradient-2)" fill-rule="nonzero" points="28.4482759 10 28.4482759 0 46.6551724 17.7777778 46.6551724 27.7777778"></polygon>
                        <polygon id="Shape" fill="url(#linearGradient-3)" points="18.2068966 20 28.4482759 12.2222222 28.4482759 22.9242304 18.2068966 30"></polygon>
                        <polygon id="Shape" fill="url(#linearGradient-4)" points="18.2068966 20 18.2068966 30 0 12.2222222 0 2.22222222"></polygon>
                    </g>
                </g>
                <path d="M60.9248276,6.44444444 L60.9248276,18.4 L67.502069,18.4 L67.502069,21.1111111 L57.8524138,21.1111111 L57.8524138,6.44444444 L60.9248276,6.44444444 Z M80.1331034,14.9777778 C80.1331034,15.5111111 80.0648276,16.0592594 79.9282759,16.6222222 L72.0082759,16.6222222 C72.2055174,17.3185184 72.5810346,17.8555556 73.1348276,18.2333333 C73.6886206,18.6111111 74.3751724,18.8 75.1944828,18.8 C76.3020691,18.8 77.3489656,18.4296295 78.3351724,17.6888889 L79.6096552,19.7333333 C78.2744826,20.8296295 76.7724137,21.3777778 75.1034483,21.3777778 C73.3282759,21.3777778 71.8565516,20.825926 70.6882759,19.7222222 C69.5200001,18.6185184 68.9358621,17.2518517 68.9358621,15.6222222 C68.9358621,14.0074073 69.5010344,12.6444444 70.6313793,11.5333333 C71.7617243,10.4222222 73.1613794,9.86666667 74.8303448,9.86666667 C76.3931036,9.86666667 77.6675863,10.3555556 78.6537931,11.3333333 C79.6399999,12.3111111 80.1331034,13.525926 80.1331034,14.9777778 Z M74.7165517,12.2888889 C74.0641378,12.2888889 73.4951723,12.4888889 73.0096552,12.8888889 C72.524138,13.2888889 72.1903448,13.8296295 72.0082759,14.5111111 L77.1517241,14.5111111 C77.1365516,13.8296295 76.8937932,13.2888889 76.4234483,12.8888889 C75.9531033,12.4888889 75.3841378,12.2888889 74.7165517,12.2888889 Z M88.6448276,9.86666667 C89.9496551,9.86666667 90.9813794,10.2703705 91.74,11.0777778 C92.4986206,11.8851851 92.877931,12.9555556 92.877931,14.2888889 L92.877931,21.1111111 L89.8282759,21.1111111 L89.8282759,14.6888889 C89.8282759,14.0518517 89.6348276,13.5370372 89.247931,13.1444444 C88.8610345,12.7518517 88.3565516,12.5555556 87.7344828,12.5555556 C87.1124139,12.5555556 86.6003449,12.7518517 86.1982759,13.1444444 C85.7962068,13.5370372 85.5951724,14.0518517 85.5951724,14.6888889 L85.5951724,21.1111111 L82.5227586,21.1111111 L82.5227586,10.1111111 L85.3448276,10.1111111 L85.3448276,11.1111111 C86.1944826,10.2814816 87.2944829,9.86666667 88.6448276,9.86666667 Z M104.029655,4.44444444 L107.102069,4.44444444 L107.102069,21.1111111 L104.28,21.1111111 L104.28,19.7333333 C103.46069,20.8296295 102.254483,21.3777778 100.661379,21.3777778 C99.0682759,21.3777778 97.7596552,20.8333333 96.7355172,19.7444444 C95.7113793,18.6555556 95.1993103,17.2814816 95.1993103,15.6222222 C95.1993103,13.9629628 95.7113793,12.5888889 96.7355172,11.5 C97.7596552,10.4111111 99.0682759,9.86666667 100.661379,9.86666667 C102.102759,9.86666667 103.225517,10.3037038 104.029655,11.1777778 L104.029655,4.44444444 Z M101.230345,18.6444444 C102.004138,18.6444444 102.671724,18.3888889 103.233103,17.8777778 C103.794483,17.3666667 104.075172,16.6148149 104.075172,15.6222222 C104.075172,14.6444444 103.794483,13.8925927 103.233103,13.3666667 C102.671724,12.8407406 102.004138,12.5777778 101.230345,12.5777778 C100.411034,12.5777778 99.7206898,12.8555556 99.1593103,13.4111111 C98.5979309,13.9666667 98.3172414,14.6962962 98.3172414,15.6 C98.3172414,16.5185184 98.594138,17.2555556 99.147931,17.8111111 C99.701724,18.3666667 100.395862,18.6444444 101.230345,18.6444444 Z M119.323448,13.1777778 C120.173103,13.474074 120.82931,13.9333333 121.292069,14.5555556 C121.754827,15.1777778 121.986207,15.925926 121.986207,16.8 C121.986207,18.074074 121.527241,19.1111111 120.60931,19.9111111 C119.691379,20.7111111 118.504138,21.1111111 117.047586,21.1111111 L110.356552,21.1111111 L110.356552,6.44444444 L115.682069,6.44444444 C117.077931,6.44444444 118.219655,6.82592604 119.107241,7.58888889 C119.994828,8.35185174 120.438621,9.33333333 120.438621,10.5333333 C120.438621,11.6 120.066897,12.4814816 119.323448,13.1777778 Z M115.431724,9.02222222 L113.315172,9.02222222 L113.315172,12.3777778 L115.431724,12.3777778 C116.053793,12.3777778 116.535517,12.225926 116.876897,11.9222222 C117.218276,11.6185184 117.388966,11.2074073 117.388966,10.6888889 C117.388966,10.1703705 117.218276,9.76296285 116.876897,9.46666667 C116.535517,9.17037048 116.053793,9.02222222 115.431724,9.02222222 Z M116.82,18.5333333 C117.487586,18.5333333 118.011034,18.3703705 118.390345,18.0444444 C118.769655,17.7185184 118.95931,17.2666667 118.95931,16.6888889 C118.95931,16.125926 118.769655,15.6777778 118.390345,15.3444444 C118.011034,15.0111111 117.487586,14.8444444 116.82,14.8444444 L113.315172,14.8444444 L113.315172,18.5333333 L116.82,18.5333333 Z M128.904828,9.86666667 C130.376552,9.86666667 131.548621,10.2703705 132.421034,11.0777778 C133.293448,11.8851851 133.729655,13.0518517 133.729655,14.5777778 L133.729655,21.1111111 L130.907586,21.1111111 L130.907586,20.0444444 C130.042759,20.9333333 128.897241,21.3777778 127.471034,21.3777778 C126.272414,21.3777778 125.324138,21.0703705 124.626207,20.4555556 C123.928276,19.8407406 123.57931,19.0518517 123.57931,18.0888889 C123.57931,17.0962962 123.962414,16.3148149 124.728621,15.7444444 C125.494828,15.174074 126.530345,14.8888889 127.835172,14.8888889 L130.657241,14.8888889 L130.657241,14.4 C130.657241,13.7925927 130.478966,13.3185184 130.122414,12.9777778 C129.765862,12.6370372 129.246207,12.4666667 128.563448,12.4666667 C127.562069,12.4666667 126.568276,12.9703705 125.582069,13.9777778 L123.988966,12.1333333 C125.293793,10.6222222 126.932414,9.86666667 128.904828,9.86666667 Z M128.290345,19.1777778 C128.957931,19.1777778 129.51931,18.974074 129.974483,18.5666667 C130.429655,18.1592594 130.657241,17.6370372 130.657241,17 L130.657241,16.8666667 L128.244828,16.8666667 C127.197931,16.8666667 126.674483,17.2370372 126.674483,17.9777778 C126.674483,18.3481483 126.822414,18.6407406 127.118276,18.8555556 C127.414138,19.0703705 127.804828,19.1777778 128.290345,19.1777778 Z M142.810345,9.86666667 C144.115172,9.86666667 145.146897,10.2703705 145.905517,11.0777778 C146.664138,11.8851851 147.043448,12.9555556 147.043448,14.2888889 L147.043448,21.1111111 L143.993793,21.1111111 L143.993793,14.6888889 C143.993793,14.0518517 143.800345,13.5370372 143.413448,13.1444444 C143.026552,12.7518517 142.522069,12.5555556 141.9,12.5555556 C141.277931,12.5555556 140.765862,12.7518517 140.363793,13.1444444 C139.961724,13.5370372 139.76069,14.0518517 139.76069,14.6888889 L139.76069,21.1111111 L136.688276,21.1111111 L136.688276,10.1111111 L139.510345,10.1111111 L139.510345,11.1111111 C140.36,10.2814816 141.46,9.86666667 142.810345,9.86666667 Z M161.108276,21.1111111 L157.603448,21.1111111 L153.074483,15.0444444 L153.074483,21.1111111 L150.002069,21.1111111 L150.002069,4.44444444 L153.074483,4.44444444 L153.074483,14.8222222 L157.125517,10.1111111 L160.766897,10.1111111 L156.533793,14.9777778 L161.108276,21.1111111 Z" id="LendBank" fill="#000000"></path>
            </g>
        </g>
    </g>
</svg>